﻿noteID,noteConID,noteAcctID,noteUser,noteTime,noteText,noteVendorID,noteType
65,190668,177448,guard,2013-03-28 17:04:56.150,This is a test note


test,NULL,NULL
66,5436,5436,Admin,2013-03-29 00:21:25.000,Test,NULL,1
67,148704,148704,guard,2013-03-29 01:21:14.473,Test Note,NULL,NULL
68,202094,183381,Maryann,2013-03-29 08:12:43.000,3/29/13 No PID for wife. Shes in a care facility. Mar,NULL,1
69,206388,185674,guard,2013-03-29 15:15:49.673,"Please call Mr. Shaw Monday, if you are here or tuesday if not here due to holiday .  Reference to Rent and registration.",NULL,NULL
70,201648,183154,guard,2013-03-31 13:42:31.197,cannot check member out due to guest losing visitor pass,NULL,NULL
71,204908,184864,guard,2013-04-06 00:58:21.327,Test Note,NULL,NULL
72,201978,183314,guard,2013-04-10 18:09:10.910,visitor area will not clear,NULL,NULL
73,206575,185771,guard,2013-04-28 11:03:23.547,member requests that 86 toyota for sale sign be removed from board

,NULL,NULL
74,206803,185889,guard,2013-06-08 07:26:32.417,"has guest on account, when leaving stated wife was the guest and she was behind him. she gave me member card and said she didn,t have guest pass. allowed to exit. ",NULL,NULL
75,206803,185889,guard,2013-06-08 07:31:41.813,disregard previous note guest pass issue resolved s/o celano,NULL,NULL
76,206553,185658,guard,2013-11-09 10:44:32.140,uid number on unit not same needs to be updated,NULL,NULL
77,206179,143664,guard,2013-11-10 13:05:08.993,Plate on boat reads expired but nothing in computer about updateing it,NULL,NULL
78,207099,186054,guard,2013-11-13 08:25:44.533,Speeder,NULL,NULL
79,199504,182045,guard,2013-11-13 09:10:08.077,915a on property with white pick up,NULL,NULL
80,189607,151217,guard,2013-11-15 10:34:34.243,kept ok to check out paper,NULL,NULL
81,203709,184240,guard,2014-01-12 13:13:45.167,MEMBER REQUESTED THAT WHEN PID IS SCANNED TO PLEASE VERIFY WITH DRIVERS LICENCE. DAUGHTER POSSIBLY USING ID CHECK PICTURE CLOSLY,NULL,NULL
82,199370,181983,guard,2014-05-03 17:15:03.290,had tow hitch replaced number mising from unit verified unit by make and licenc plate allowed exit,NULL,NULL
83,208743,187094,guard,2015-06-06 16:32:24.627,came into compound 6-5-15 vehicle in holding 
,NULL,NULL
84,207472,186268,guard,2015-08-16 05:52:27.687,NOT TO REMOVE ANYTHING FROM COMPOUND WIOUT TOM BEING PRESENT CALL TOM IN REGARDS TO BEING ON SITE,NULL,NULL
85,207088,186046,guard,2015-10-03 08:53:57.517,moved unit per office 10-3-15,NULL,NULL
86,206338,185642,guard,2015-11-21 10:27:31.793,number and plate do not match cleared through id will be in 11-23 to correct (member stated other guards allowed exit this will be addressed)
209622
,NULL,NULL
87,207963,186621,guard,2015-11-29 09:56:23.933,NO STICKER CLEARED BY PLATE AND VIN,NULL,NULL
88,203144,183939,guard,2015-12-05 07:42:28.867,number missing verified ownership through plate and vin member will be in to have number replaced,NULL,NULL
89,202178,183425,guard,2016-01-10 06:26:16.240,new sticker needed on unit,NULL,NULL
